[
    {
        "_id": "hiSalutations",
        "content": [
            "Bonjour",
            "Hello",
            "Aloha",
            "Good morning",
            "Salutation à toi"
        ]
    },
    {
        "_id": "hiQuestions",
        "content": [
            "Comment vas-tu ?",
            "Ta journée se passe bien ?",
            "Tout va bien ?",
            "J'espère que tout va bien :)"
        ]
    },
    {
        "_id": "help",
        "content": [
            "tapez ' !help ' pour avoir la liste des commandes disponibles"
        ]
    },
    {
        "_id": "easter",
        "miscellanousResponses": [
            "Beep",
            "Boop",
            "Beep-Boop"
        ]
    }
]